{
    "packageDirectories": [
        {
            "path": "force-app",
            "default": true,
            "package": "EBikesLWC",
            "versionNumber": "1.0.0.NEXT"
        }
    ],
    "namespace": "",
    "sourceApiVersion": "47.0"
}